…
df
```

    ## # A tibble: 622 x 2
    ##    sentence_num       word
    ##           <int>      <chr>
    ##  1           39    experts
    ##  2           64   valuable
    ##  3          381    experts
    ##  4          440    experts
    ##  5          633 specialist
    ##  6          644    experts
    ##  7         1377   valuable
    ##  8         1467    courage
    ##  9         1633     expert
    ## 10         1778     expert
    ## # ... with 612 more rows
#### Filtering Context Vectors -

``` r
# left_join the raw_text into the newly fromed table "df" with the the required words, this filters out all the unnecessary text and only preserves the ones where we have the required words such as "priceless,courage..." 
# then add a grouping variable and create another variable called line_no
# that means we will have a bunch of line_no for each individual senetence number
df %>% left_join(raw_text)  %>% 
  unnest_tokens(context_vector,text) %>% 
  group_by(sentence_num) %>%
  mutate(line_no = row_number()) ->df

df
```

    ## # A tibble: 17,552 x 4
    ## # Groups:   sentence_num [609]
    ##    sentence_num    word context_vector line_no
    ##           <int>   <chr>          <chr>   <int>
    ##  1           39 experts             39       1
    ##  2           39 experts            but       2
    ##  3           39 experts           even       3
    ##  4           39 experts             at       4
    ##  5           39 experts           this       5
    ##  6           39 experts          stage       6
    ##  7           39 experts          there       7
    ##  8           39 experts            are       8
    ##  9           39 experts           many       9
    ## 10           39 experts        hurdles      10
    ## # ... with 17,542 more rows

``` r
# first, filter out rows where context_vector == word column
# calculate the index(row numbers) for the "word behind" and the "word ahead" that make up the context vector of the given word
df %>%  filter(context_vector ==  word) %>% select(sentence_num,line_no) %>%
  mutate(word_behind = line_no-1, word_ahead = line_no+1) %>%
  select(-line_no) %>%
  gather(word_type, line_no, word_behind:word_ahead) %>%
  left_join(df)  -> df

df
```

    ## # A tibble: 1,276 x 5
    ## # Groups:   sentence_num [?]
    ##    sentence_num   word_type line_no       word  context_vector
    ##           <int>       <chr>   <dbl>      <chr>           <chr>
    ##  1           39 word_behind      17    experts            city
    ##  2           64 word_behind      17   valuable            them
    ##  3          381 word_behind       3    experts            some
    ##  4          440 word_behind      15    experts           which
    ##  5          633 word_behind      12 specialist               a
    ##  6          644 word_behind       4    experts     independent
    ##  7         1377 word_behind      14   valuable psychologically
    ##  8         1467 word_behind      10    courage     originality
    ##  9         1633 word_behind      12     expert            have
    ## 10         1778 word_behind      38     expert              of
    ## # ... with 1,266 more rows
…
# filtering out the context vector for each word
# first group all the records based on the word column, we should have 6 distinct groups
# next drop all the "NA" values (they were introduced in case if we were trying to select rows that do not exist)
# finally, select only distinct values for each group
# that means each word will have a context vector without any repetetions
df %>% ungroup() %>%
  group_by(word) %>%
  select(context_vector) %>%
  drop_na() %>% distinct() -> df

df
```

    ## # A tibble: 648 x 2
    ## # Groups:   word [6]
    ##                      word  context_vector
    ##                     <chr>           <chr>
    ##  1         expert_experts            city
    ##  2               valuable            them
    ##  3         expert_experts            some
    ##  4         expert_experts           which
    ##  5 specialist_specialists               a
    ##  6         expert_experts     independent
    ##  7               valuable psychologically
    ##  8                courage     originality
    ##  9         expert_experts            have
    ## 10         expert_experts              of
    ## # ... with 638 more rows
…
